…
# Make tidy

```r
colnames(auspop) <- c("Date", paste0("M-", 0:100), paste0("F-", 0:100), paste0("P-", 0:47))

auspop %>% 
  gather(key, value, -Date) %>% 
  separate(key, into = c("gender", "age"), sep = "-") %>% 
  mutate(age = as.numeric(age), Year = year(Date))
```

```
## # A tibble: 11,500 x 5
##          Date gender   age  value  Year
##        <dttm>  <chr> <dbl>  <dbl> <dbl>
##  1 1971-06-01      M     0 133347  1971
##  2 1972-06-01      M     0 136987  1972
##  3 1973-06-01      M     0 129492  1973
##  4 1974-06-01      M     0 124803  1974
##  5 1975-06-01      M     0 120678  1975
##  6 1976-06-01      M     0 115457  1976
##  7 1977-06-01      M     0 115298  1977
##  8 1978-06-01      M     0 115249  1978
##  9 1979-06-01      M     0 113443  1979
## 10 1980-06-01      M     0 114488  1980
## # ... with 11,490 more rows
```
…
